{
    "Version": "2012-10-17",
    "Statement": [
        {
            "Sid": "DenyRoleChanges",
            "Effect": "Deny",
            "Action": [
                "iam:AttachRolePolicy",
                "iam:DeleteRolePolicy",
                "iam:DetachRolePolicy",
                "iam:PutRolePolicy",
                "iam:DeleteRole",
                "iam:UpdateRole",
                "iam:UpdateRoleDescription",
                "iam:DeleteRolePermissionsBoundary",
                "iam:PutRolePermissionsBoundary",
                "iam:UpdateAssumeRolePolicy"
            ],
            "Resource": [
                "arn:aws:iam::*:role/lgBillingUser",
                "arn:aws:iam::*:role/lgIAMAdmistrator",
                "arn:aws:iam::*:role/lgSecurityAuditor",
                "arn:aws:iam::*:role/lgCloud*"
            ],
            "Condition": {
                "ArnNotLike": {
                    "aws:PrincipalARN": [
                        "arn:aws:iam::*:role/AWSCloudFormationStackSetExecutionRole",
                        "arn:aws:iam::*:role/lgCloudAdministrator"
                    ]
                }
            }
        },
        {
            "Sid": "DenyRootUserAccessKeys",
            "Effect": "Deny",
            "Action": [
                "iam:CreateAccessKey"
            ],
            "Resource": [
                "*"
            ],
            "Condition": {
                "StringLike": {
                    "aws:PrincipalArn": [
                        "arn:aws:iam::*:root"
                    ]
                },
                "ArnNotLike": {
                    "aws:PrincipalARN": [
                        "arn:aws:iam::*:role/AWSCloudFormationStackSetExecutionRole",
                        "arn:aws:iam::*:role/lgCloudAdministrator"
                    ]
                }
            }
        },
        {
            "Sid": "DenyDisableEBSEncryption",
            "Effect": "Deny",
            "Action": [
                "ec2:DisableEbsEncryptionByDefault"
            ],
            "Resource": [
                "*"
            ],
            "Condition": {
                "ArnNotLike": {
                    "aws:PrincipalARN": [
                        "arn:aws:iam::*:role/AWSCloudFormationStackSetExecutionRole",
                        "arn:aws:iam::*:role/lgCloudAdministrator"
                    ]
                }
            }
        },
        {
            "Sid": "DenyPasswordPolicyChange",
            "Effect": "Deny",
            "Action": [
                "iam:UpdateAccountPasswordPolicy"
            ],
            "Resource": [
                "*"
            ],
            "Condition": {
                "ArnNotLike": {
                    "aws:PrincipalARN": [
                        "arn:aws:iam::*:role/AWSCloudFormationStackSetExecutionRole",
                        "arn:aws:iam::*:role/lgCloudAdministrator",
                        "arn:aws:iam::*:role/StackSet-*LambdaRole-*"
                    ]
                }
            }
        },
        {
            "Sid": "DenyUnencryptedEFS",
            "Effect": "Deny",
            "Action": [
                "elasticfilesystem:CreateFileSystem"
            ],
            "Resource": [
                "*"
            ],
            "Condition": {
                "Bool": {
                    "elasticfilesystem:Encrypted": "false"
                },
                "ArnNotLike": {
                    "aws:PrincipalARN": [
                        "arn:aws:iam::*:role/AWSCloudFormationStackSetExecutionRole",
                        "arn:aws:iam::*:role/lgCloudAdministrator"
                    ]
                }
            }
        },
        {
            "Sid": "DenyLeaveOrganization",
            "Effect": "Deny",
            "Action": "organizations:LeaveOrganization",
            "Resource": "*",
            "Condition": {
                "ArnNotLike": {
                    "aws:PrincipalArn": [
                        "arn:aws:iam::*:role/AWSCloudFormationStackSetExecutionRole",
                        "arn:aws:iam::*:role/lgCloudAdministrator"
                    ]
                }
            }
        },
        {
            "Sid": "DenyConsoleLogin",
            "Effect": "Deny",
            "Action": "iam:CreateLoginProfile",
            "Resource": "*",
            "Condition": {
                "ArnNotLike": {
                    "aws:PrincipalArn": [
                        "arn:aws:iam::*:role/AWSCloudFormationStackSetExecutionRole",
                        "arn:aws:iam::*:role/lgCloudAdministrator"
                    ]
                }
            }
        },
        {
            "Sid": "DenyGuardDutyChange",
            "Effect": "Deny",
            "Action": [
                "guardduty:DeleteDetector",
                "guardduty:UpdateDetector",
                "guardduty:DisassociateFromMasterAccount",
                "guardduty:CreateFilter"
            ],
            "Resource": "*",
            "Condition": {
                "ArnNotLike": {
                    "aws:PrincipalArn": [
                        "arn:aws:iam::*:role/AWSCloudFormationStackSetExecutionRole",
                        "arn:aws:iam::*:role/lgCloudAdministrator"
                    ]
                }
            }
        },
        {
            "Sid": "DenyCloudWatchEventsChange",
            "Effect": "Deny",
            "Action": [
                "events:PutRule",
                "events:PutTargets",
                "events:RemoveTargets",
                "events:DisableRule",
                "events:DeleteRule"
            ],
            "Resource": [
                "arn:aws:events:*:*:rule/Config-Rule-Compliance-Change-CloudWatch-Rule"
            ],
            "Condition": {
                "ArnNotLike": {
                    "aws:PrincipalARN": [
                        "arn:aws:iam::*:role/AWSCloudFormationStackSetExecutionRole",
                        "arn:aws:iam::*:role/lgCloudAdministrator"
                    ]
                }
            }
        },
        {
            "Sid": "DenyUnencryptedRDS",
            "Effect": "Deny",
            "Action": [
                "rds:CreateDBInstance"
            ],
            "Resource": "*",
            "Condition": {
                "Bool": {
                    "rds:StorageEncrypted": "false"
                },
                "StringNotEquals": {
                    "rds:DatabaseEngine": [
                        "aurora",
                        "aurora-mysql",
                        "aurora-postgresql"
                    ]
                },
                "ArnNotLike": {
                    "aws:PrincipalArn": [
                        "arn:aws:iam::*:role/lgCloudAdministrator",
                        "arn:aws:iam::*:role/AWSCloudFormationStackSetExecutionRole"
                    ]
                }
            }
        },
        {
            "Sid": "DenyUnencryptedAurora",
            "Effect": "Deny",
            "Action": [
                "rds:CreateDBCluster"
            ],
            "Resource": "*",
            "Condition": {
                "Bool": {
                    "rds:StorageEncrypted": "false"
                },
                "StringEquals": {
                    "rds:DatabaseEngine": [
                        "aurora",
                        "aurora-mysql",
                        "aurora-postgresql"
                    ]
                },
                "ArnNotLike": {
                    "aws:PrincipalArn": [
                        "arn:aws:iam::*:role/lgCloudAdministrator",
                        "arn:aws:iam::*:role/AWSCloudFormationStackSetExecutionRole"
                    ]
                }
            }
        }
    ]
}